Indicator_total
…
mortality_rate_unsafe_water <- select(
  mortality_rate_unsafe_water,
  code = 'geoAreaCode',
  country = 'geoAreaName',
  region = 'parentName',
  iso = 'ISO3',
  MR_unsafe_water = 'latest_value'
)

mortality_rate_unsafe_water <- mortality_rate_unsafe_water %>%
  distinct()

mortality_rate_unsafe_water

# A tibble: 183 × 5
    code country                          region           iso   MR_unsafe_water
   <dbl> <chr>                            <chr>            <chr>           <dbl>
 1   583 Micronesia (Federated States of) Oceania (exc. A… FSM               3.6
 2   496 Mongolia                         Eastern Asia     MNG               1.3
 3   499 Montenegro                       Southern Europe  MNE               0  
 4   504 Morocco                          Northern Africa  MAR               1.9
 5   508 Mozambique                       Eastern Africa   MOZ              27.6
 6   104 Myanmar                          South-Eastern A… MMR              12.6
 7   516 Namibia                          Southern Africa  NAM              18.3
 8   524 Nepal                            Southern Asia (… NPL              19.8
 9   528 Netherlands                      Western Europe   NLD               0.2
10   554 New Zealand                      Australia and N… NZL               0.1
# ℹ 173 more rows
…
# Remove duplicates
proportion_of_safe_water <- proportion_of_safe_water%>%
  distinct()

proportion_of_safe_water

# A tibble: 300 × 6
    code country      region                iso   urbanisation sanitation_access
   <dbl> <chr>        <chr>                 <chr> <chr>                    <dbl>
 1     4 Afghanistan  Southern Asia (exclu… AFG   All areas                   38
 2   356 India        Southern Asia         IND   Urban                       82
 3   360 Indonesia    South-Eastern Asia    IDN   All areas                   94
 4     4 Afghanistan  Southern Asia (exclu… AFG   Rural                       29
 5   694 Sierra Leone Western Africa        SLE   Rural                       18
 6   360 Indonesia    South-Eastern Asia    IDN   Rural                       91
 7     4 Afghanistan  Southern Asia (exclu… AFG   Urban                       64
 8    12 Algeria      Northern Africa       DZA   All areas                   85
 9    12 Algeria      Northern Africa       DZA   Rural                       75
10    12 Algeria      Northern Africa       DZA   Urban                       88
# ℹ 290 more rows
…
# drop rows if contains at least one NA value
mortality_rate_unintentional_poisoning <- na.omit(mortality_rate_unintentional_poisoning)

# Remove duplicates
mortality_rate_unintentional_poisoning <- mortality_rate_unintentional_poisoning%>%
  distinct()

#check for empty row
any(is.na(mortality_rate_unintentional_poisoning))

[1] FALSE

mortality_rate_unintentional_poisoning

# A tibble: 549 × 6
    code country     region                          iso   gender   MR_poisoning
   <dbl> <chr>       <chr>                           <chr> <chr>           <dbl>
 1   470 Malta       Southern Europe                 MLT   Both se…          0.1
 2   152 Chile       South America                   CHL   Male              0.5
 3     4 Afghanistan Southern Asia (excluding India) AFG   Both se…          1  
 4   470 Malta       Southern Europe                 MLT   Female            0  
 5   156 China       Eastern Asia                    CHN   Both se…          1.8
 6   470 Malta       Southern Europe                 MLT   Male              0.2
 7   156 China       Eastern Asia                    CHN   Female            1.5
 8   478 Mauritania  Western Africa                  MRT   Both se…          1.5
 9   478 Mauritania  Western Africa                  MRT   Female            1.3
10   478 Mauritania  Western Africa                  MRT   Male              1.7
# ℹ 539 more rows
…
# drop rows if contains at least one NA value
population_with_basic_handwashing_facilities <- na.omit(population_with_basic_handwashing_facilities)

# Remove duplicates
population_with_basic_handwashing_facilities <- population_with_basic_handwashing_facilities%>%
  distinct()

#check for empty row
any(is.na(mortality_rate_unintentional_poisoning))

[1] FALSE

population_with_basic_handwashing_facilities

# A tibble: 250 × 6
    code country      region                  iso   urbanisation handwash_access
   <dbl> <chr>        <chr>                   <chr> <chr>                  <dbl>
 1     4 Afghanistan  Southern Asia (excludi… AFG   All areas                 38
 2   356 India        Southern Asia           IND   Urban                     82
 3   360 Indonesia    South-Eastern Asia      IDN   All areas                 94
 4     4 Afghanistan  Southern Asia (excludi… AFG   Rural                     29
 5   694 Sierra Leone Western Africa          SLE   Rural                     18
 6   360 Indonesia    South-Eastern Asia      IDN   Rural                     91
 7     4 Afghanistan  Southern Asia (excludi… AFG   Urban                     64
 8    12 Algeria      Northern Africa         DZA   All areas                 85
 9    12 Algeria      Northern Africa         DZA   Rural                     75
10    12 Algeria      Northern Africa         DZA   Urban                     88
# ℹ 240 more rows
…
datatable(clean_datatable)

Correlation between 4 indicators

# filter gender of both sexes to reduce duplicates
countries_tb <- countries_tb |>
  filter(gender == "Both sexes") |>
  na.omit(countries_tb)
countries_tb

# A tibble: 244 × 18
   code.x country.x   region.x         iso   gender MR_poisoning code.y region.y
    <dbl> <chr>       <chr>            <chr> <chr>         <dbl>  <dbl> <chr>   
 1      4 Afghanistan Southern Asia (… AFG   Both …          1        4 Souther…
 2      4 Afghanistan Southern Asia (… AFG   Both …          1        4 Souther…
 3      4 Afghanistan Southern Asia (… AFG   Both …          1        4 Souther…
 4    478 Mauritania  Western Africa   MRT   Both …          1.5    478 Western…
 5    478 Mauritania  Western Africa   MRT   Both …          1.5    478 Western…
 6    478 Mauritania  Western Africa   MRT   Both …          1.5    478 Western…
 7    484 Mexico      Central America  MEX   Both …          0.4    484 Central…
 8    484 Mexico      Central America  MEX   Both …          0.4    484 Central…
 9    484 Mexico      Central America  MEX   Both …          0.4    484 Central…
10    496 Mongolia    Eastern Asia     MNG   Both …          2.8    496 Eastern…
# ℹ 234 more rows
# ℹ 10 more variables: urbanisation <chr>, handwash_access <dbl>,
#   code.x.x <dbl>, country.y <chr>, region.x.x <chr>, MR_unsafe_water <dbl>,
#   code.y.y <dbl>, country <chr>, region.y.y <chr>, sanitation_access <dbl>

countries_tb_subset <- select(countries_tb, MR_poisoning, MR_unsafe_water, handwash_access, sanitation_access,urbanisation,country.x)

# Display the subsetted data
print(countries_tb_subset)

# A tibble: 244 × 6
   MR_poisoning MR_unsafe_water handwash_access sanitation_access urbanisation
          <dbl>           <dbl>           <dbl>             <dbl> <chr>       
 1          1              13.9              38                38 All areas   
 2          1              13.9              29                29 Rural       
 3          1              13.9              64                64 Urban       
 4          1.5            38.6              53                53 All areas   
 5          1.5            38.6              36                36 Rural       
 6          1.5            38.6              66                66 Urban       
 7          0.4             1.1              90                90 All areas   
 8          0.4             1.1              84                84 Rural       
 9          0.4             1.1              91                91 Urban       
10          2.8             1.3              84                84 All areas   
# ℹ 234 more rows
# ℹ 1 more variable: country.x <chr>
…
library(GGally)
library(ggplot2)

#set axis names
countries_tb_subset_corr4 <- select(countries_tb_subset, MR_unsafe_water, MR_poisoning, handwash_access, sanitation_access, urbanisation,country.x)
colnames(countries_tb_subset_corr4) <- c("Unsafe Water Mortality Rate",
                                         "Poisoning Mortality",
                                         "Handwashing Access (%)",
                                         "Sanitation Access (%)",
                                         "Urbanisation",
                                         "Countries"
                                         )
countries_tb_subset_corr4

# A tibble: 244 × 6
   `Unsafe Water Mortality Rate` `Poisoning Mortality` `Handwashing Access (%)`
                           <dbl>                 <dbl>                    <dbl>
 1                          13.9                   1                         38
 2                          13.9                   1                         29
 3                          13.9                   1                         64
 4                          38.6                   1.5                       53
 5                          38.6                   1.5                       36
 6                          38.6                   1.5                       66
 7                           1.1                   0.4                       90
 8                           1.1                   0.4                       84
 9                           1.1                   0.4                       91
10                           1.3                   2.8                       84
# ℹ 234 more rows
# ℹ 3 more variables: `Sanitation Access (%)` <dbl>, Urbanisation <chr>,
#   Countries <chr>
…
